<?xml version="1.0" ?>
<robot name="cube">
       <material name="orange">
        <color rgba="0.98 0.55 0.33 1"/>
      </material>
       <material name="darkorange">
        <color rgba="0.906 0.302 0.169 1"/>
      </material>
       <material name="grey">
        <color rgba="0.77 0.77 0.77 1"/>
      </material>
  <link name="baseLink">
    <contact>
      <lateral_friction value="0.0"/>
      <rolling_friction value="0.0"/>
      <contact_cfm value="0.0"/>
      <contact_erp value="0.0"/>
    </contact>
    <inertial>
      <origin rpy="0 0 0" xyz="0 0 0"/>
       <mass value="0.5"/>
       <inertia ixx="0.2" ixy="0.2" ixz="0" iyy="0.2" iyz="0" izz="0.5"/>
    </inertial>
    <visual>
      <origin rpy="0 0 0" xyz="0 -0.155 0"/>
      <geometry>
        <mesh filename="meshes/cube.obj" scale="0.2 0.5 0.5"/>
      </geometry>
      <material name="orange"/>
    </visual>
    <visual>
      <origin rpy="0 0 0" xyz="0.055 -0.4 0.255"/>
      <geometry>
        <mesh filename="meshes/cube.obj" scale="0.05 0.05 0.05"/>
      </geometry>
      <material name="orange"/>
    </visual>
    <visual>
      <origin rpy="0 0 0" xyz="-0.055 -0.4 0.255"/>
      <geometry>
        <mesh filename="meshes/cube.obj" scale="0.05 0.05 0.05"/>
      </geometry>
      <material name="orange"/>
    </visual>
    <collision>
      <origin rpy="0 0 0" xyz="0 0 0"/>
      <geometry>
	 	<box size="0.2 0.2 0.5"/>
      </geometry>
    </collision>
  </link>
  <link name="arm_link_1">
    <contact>
      <lateral_friction value="0.0"/>
      <rolling_friction value="0.0"/>
      <contact_cfm value="0.0"/>
      <contact_erp value="0.0"/>
    </contact>
    <inertial>
      <origin rpy="0 0 0" xyz="0 0 -0.1"/>
       <mass value="0.2"/>
       <inertia ixx="0.05" ixy="0.05" ixz="0" iyy="0.05" iyz="0" izz="0.2"/>
    </inertial>
    <visual>
      <origin rpy="0 0 0" xyz="0 0 -0.1"/>
      <geometry>
        <mesh filename="meshes/cube.obj" scale="0.05 0.05 0.2"/>
      </geometry>
      <material name="darkorange"/>
    </visual>
    <collision>
      <origin rpy="0 0 0" xyz="0 0 -0.1"/>
      <geometry>
	 	<box size="0.05 0.05 0.2"/>
      </geometry>
    </collision>
  </link>
  <link name="arm_link_2">
    <contact>
      <lateral_friction value="0.0"/>
      <rolling_friction value="0.0"/>
      <contact_cfm value="0.0"/>
      <contact_erp value="0.0"/>
    </contact>
    <inertial>
      <origin rpy="0 0 0" xyz="0 0 0.1"/>
       <mass value="0.2"/>
       <inertia ixx="0.05" ixy="0.05" ixz="0" iyy="0.05" iyz="0" izz="0.2"/>
    </inertial>
    <visual>
      <origin rpy="3.14 0 0" xyz="0 0 0.1"/>
      <geometry>
        <mesh filename="meshes/cube.obj" scale="0.05 0.05 0.2"/>
      </geometry>
      <material name="grey"/>
    </visual>
    <collision>
      <origin rpy="0 0 0" xyz="0 0 0.1"/>
      <geometry>
	 	<box size="0.05 0.05 0.2"/>
      </geometry>
    </collision>
  </link>
  <joint name="arm_joint_1" type="revolute">
	  <parent link="baseLink"/>
	  <child link="arm_link_1"/>
	  <origin rpy="0 0 0" xyz="0 0.1251 0.25"/>
          <axis xyz="0 1 0"/>
          <!-- <limit effort="300" lower="-2.96705972839" upper="2.96705972839" velocity="10"/> -->
	  <limit effort="0" velocity="0"/>
          <dynamics damping="0" friction="0"/>
  </joint>
  <joint name="arm_joint_2" type="revolute">
	  <parent link="arm_link_1"/>
	  <child link="arm_link_2"/>
	  <origin rpy="0 3.1415 0" xyz="0 0.05 -0.2"/>
          <axis xyz="0 1 0"/>
          <!-- <limit effort="300" lower="-2.96705972839" upper="2.96705972839" velocity="10"/> -->
	  <limit effort="0" velocity="0"/>
          <dynamics damping="0" friction="0"/>
  </joint>
</robot>
